%YAML 1.1
%TAG !u! tag:unity3d.com,2011:
--- !u!114 &11400000
MonoBehaviour:
  m_ObjectHideFlags: 0
  m_CorrespondingSourceObject: {fileID: 0}
  m_PrefabInstance: {fileID: 0}
  m_PrefabAsset: {fileID: 0}
  m_GameObject: {fileID: 0}
  m_Enabled: 1
  m_EditorHideFlags: 0
  m_Script: {fileID: 11500000, guid: f1b3b4b945939a54ea0b23d3396115fb, type: 3}
  m_Name: molang_SkeletonData
  m_EditorClassIdentifier: 
  atlasAssets:
  - {fileID: 11400000, guid: 0265f8b869f6a4f4486c37c636da1c8c, type: 2}
  scale: 0.01
  skeletonJSON: {fileID: 4900000, guid: 4103113a38c2bc64cacdbc56f11ace96, type: 3}
  skeletonDataModifiers: []
  fromAnimation:
  - Idle
  - action_idle
  - run
  toAnimation:
  - sitdown
  - sitdown
  - sitdown
  duration:
  - 0.5
  - 0.5
  - 0.5
  defaultMix: 0.25
  controller: {fileID: 0}
