%YAML 1.1
%TAG !u! tag:unity3d.com,2011:
--- !u!1 &5844226224020375705
GameObject:
  m_ObjectHideFlags: 0
  m_CorrespondingSourceObject: {fileID: 0}
  m_PrefabInstance: {fileID: 0}
  m_PrefabAsset: {fileID: 0}
  serializedVersion: 6
  m_Component:
  - component: {fileID: 5844226224020375702}
  - component: {fileID: 5844226224020375703}
  m_Layer: 10
  m_Name: Glow Light
  m_TagString: Untagged
  m_Icon: {fileID: 0}
  m_NavMeshLayer: 0
  m_StaticEditorFlags: 0
  m_IsActive: 1
--- !u!4 &5844226224020375702
Transform:
  m_ObjectHideFlags: 0
  m_CorrespondingSourceObject: {fileID: 0}
  m_PrefabInstance: {fileID: 0}
  m_PrefabAsset: {fileID: 0}
  m_GameObject: {fileID: 5844226224020375705}
  m_LocalRotation: {x: -0, y: -0, z: -0, w: 1}
  m_LocalPosition: {x: 49.824158, y: -74.79141, z: 770.0625}
  m_LocalScale: {x: 1, y: 1, z: 1}
  m_Children: []
  m_Father: {fileID: 0}
  m_RootOrder: 0
  m_LocalEulerAnglesHint: {x: 0, y: 0, z: 0}
--- !u!114 &5844226224020375703
MonoBehaviour:
  m_ObjectHideFlags: 0
  m_CorrespondingSourceObject: {fileID: 0}
  m_PrefabInstance: {fileID: 0}
  m_PrefabAsset: {fileID: 0}
  m_GameObject: {fileID: 5844226224020375705}
  m_Enabled: 1
  m_EditorHideFlags: 0
  m_Script: {fileID: 11500000, guid: 073797afb82c5a1438f328866b10b3f0, type: 3}
  m_Name: 
  m_EditorClassIdentifier: 
  m_LightType: 4
  m_BlendStyleIndex: 0
  m_FalloffIntensity: 0.569
  m_Color: {r: 1, g: 1, b: 1, a: 1}
  m_Intensity: 1.7
  m_LightVolumeOpacity: 0
  m_ApplyToSortingLayers: f549b644
  m_LightCookieSprite: {fileID: 0}
  m_UseNormalMap: 0
  m_LightOrder: 1
  m_AlphaBlendOnOverlap: 0
  m_ShadowIntensity: 0
  m_ShadowVolumeIntensity: 0
  m_PointLightInnerAngle: 360
  m_PointLightOuterAngle: 360
  m_PointLightInnerRadius: 10
  m_PointLightOuterRadius: 10
  m_PointLightDistance: 15
  m_PointLightQuality: 1
  m_ShapeLightParametricSides: 5
  m_ShapeLightParametricAngleOffset: 0
  m_ShapeLightParametricRadius: 1
  m_ShapeLightFalloffSize: 15.56
  m_ShapeLightFalloffOffset: {x: 0, y: 0}
  m_ShapePath:
  - {x: -23.265238, y: -85.26016, z: 0}
  - {x: -20.308971, y: -91.04465, z: 0}
  - {x: -9.102617, y: -93.84624, z: 0}
  - {x: 8.64077, y: -94.780106, z: 0}
  - {x: 24.516428, y: -93.28592, z: 0}
  - {x: 39.271404, y: -88.803375, z: 0}
  - {x: 42.48963, y: -83.64751, z: 0}
  - {x: 20.801847, y: 14.243423, z: 0}
  - {x: -21.971134, y: 8.635544, z: 0}
