%YAML 1.1
%TAG !u! tag:unity3d.com,2011:
--- !u!1045 &1
EditorBuildSettings:
  m_ObjectHideFlags: 0
  serializedVersion: 2
  m_Scenes:
  - enabled: 0
    path: Assets/Scenes/Intro.unity
    guid: 26a4361181d67c74d8b9ae2c856ea047
  - enabled: 1
    path: Assets/Scenes/UIScene.unity
    guid: 0a98060b8a257dc4298527922d2b13f0
  m_configObjects: {}
