%YAML 1.1
%TAG !u! tag:unity3d.com,2011:
--- !u!21 &2100000
Material:
  serializedVersion: 6
  m_ObjectHideFlags: 0
  m_CorrespondingSourceObject: {fileID: 0}
  m_PrefabInstance: {fileID: 0}
  m_PrefabAsset: {fileID: 0}
  m_Name: canyon_grass_mat_01
  m_Shader: {fileID: -6465566751694194690, guid: 63f67e98ff910a14594ecd391ee6d655,
    type: 3}
  m_ShaderKeywords: ETC1_EXTERNAL_ALPHA
  m_LightmapFlags: 4
  m_EnableInstancingVariants: 0
  m_DoubleSidedGI: 0
  m_CustomRenderQueue: -1
  stringTagMap: {}
  disabledShaderPasses: []
  m_SavedProperties:
    serializedVersion: 3
    m_TexEnvs:
    - _AlphaTex:
        m_Texture: {fileID: 0}
        m_Scale: {x: 1, y: 1}
        m_Offset: {x: 0, y: 0}
    - _MainTex:
        m_Texture: {fileID: 2800000, guid: 27f8cae21017d744b9eba9163d726d5b, type: 3}
        m_Scale: {x: 1, y: 1}
        m_Offset: {x: 0, y: 0}
    - _MaskTex:
        m_Texture: {fileID: 0}
        m_Scale: {x: 1, y: 1}
        m_Offset: {x: 0, y: 0}
    - _NormalMap:
        m_Texture: {fileID: 0}
        m_Scale: {x: 1, y: 1}
        m_Offset: {x: 0, y: 0}
    m_Floats:
    - Vector1_36BC0FD6: 0.5
    - Vector1_3AEF5FB5: 0.2
    - Vector1_52D24AB4: 1
    - Vector1_7AA64B76: 4
    - _EnableExternalAlpha: 0
    m_Colors:
    - Color_6285757B: {r: 0.8962264, g: 0.8750001, b: 0.83281416, a: 0}
    - Color_8166340E: {r: 0, g: 0, b: 0, a: 0}
    - RimColor: {r: 1, g: 1, b: 1, a: 1}
    - Vector2_AB971143: {r: 2, g: 0, b: 0, a: 0}
    - _Color: {r: 1, g: 1, b: 1, a: 1}
    - _Flip: {r: 1, g: 1, b: 1, a: 1}
    - _RendererColor: {r: 1, g: 1, b: 1, a: 1}
    - _timecontrol: {r: 1, g: 1, b: 1, a: 0}
