%YAML 1.1
%TAG !u! tag:unity3d.com,2011:
--- !u!21 &2100000
Material:
  serializedVersion: 6
  m_ObjectHideFlags: 0
  m_CorrespondingSourceObject: {fileID: 0}
  m_PrefabInstance: {fileID: 0}
  m_PrefabAsset: {fileID: 0}
  m_Name: grassland_molanghouse
  m_Shader: {fileID: -6465566751694194690, guid: 4d2cd060b40ae4044b13c8dd9ea9a458,
    type: 3}
  m_ShaderKeywords: ETC1_EXTERNAL_ALPHA
  m_LightmapFlags: 4
  m_EnableInstancingVariants: 0
  m_DoubleSidedGI: 0
  m_CustomRenderQueue: -1
  stringTagMap: {}
  disabledShaderPasses: []
  m_SavedProperties:
    serializedVersion: 3
    m_TexEnvs:
    - _AlphaTex:
        m_Texture: {fileID: 0}
        m_Scale: {x: 1, y: 1}
        m_Offset: {x: 0, y: 0}
    - _MainTex:
        m_Texture: {fileID: 2800000, guid: cf4efb42744200242871a7b5b2a59691, type: 3}
        m_Scale: {x: 1, y: 1}
        m_Offset: {x: 0, y: 0}
    - _MaskTex:
        m_Texture: {fileID: 2800000, guid: 8b8eb7fbbdc319d45b5954e28883fe8c, type: 3}
        m_Scale: {x: 1, y: 1}
        m_Offset: {x: 0, y: 0}
    - _NormalMap:
        m_Texture: {fileID: 2800000, guid: f550898390e74074dafb7e7456fa0f1d, type: 3}
        m_Scale: {x: 1, y: 1}
        m_Offset: {x: 0, y: 0}
    m_Floats:
    - Vector1_1C764FDF: 1
    - Vector1_49D1F4B5: 5
    - Vector1_CA59F23F: 1
    - Vector1_D1BFFED6: 1
    - _EnableExternalAlpha: 0
    m_Colors:
    - Color_3AD44690: {r: 0.12156863, g: 0.20784314, b: 0.16078432, a: 1}
    - Color_A083EAC9: {r: 0, g: 0, b: 0, a: 1}
    - Color_B0EB874E: {r: 0.7091492, g: 0.9056604, b: 0.8936987, a: 0}
    - Color_B862CBBB: {r: 0.9245283, g: 0.3891914, b: 0.1482734, a: 0}
    - _Color: {r: 1, g: 1, b: 1, a: 1}
    - _Flip: {r: 1, g: 1, b: 1, a: 1}
    - _RendererColor: {r: 1, g: 1, b: 1, a: 1}
